\relax 
\providecommand\hyper@newdestlabel[2]{}
\bibcite{adriaans}{1}
\bibcite{alfon}{2}
\bibcite{allan}{3}
\bibcite{bellgard}{4}
\bibcite{bidlack}{5}
\bibcite{biles}{6}
\bibcite{birchfield}{7}
\bibcite{burton}{8}
\bibcite{colton}{9}
\bibcite{alcazar}{10}
\bibcite{deprisco}{11}
\bibcite{iamus}{12}
\bibcite{diaz}{13}
\bibcite{duff}{14}
\bibcite{ebcioglu1}{15}
\bibcite{ebcioglu2}{16}
\@writefile{toc}{\contentsline {chapter}{Seznam pou\IeC {\v z}it\IeC {\'e} literatury}{47}{chapter*.18}}
\bibcite{farbood}{17}
\bibcite{fernandez}{18}
\bibcite{franklin}{19}
\bibcite{freitas}{20}
\bibcite{gartland}{21}
\bibcite{gibson}{22}
\bibcite{gillet}{23}
\bibcite{gillick}{24}
\bibcite{goldman}{25}
\bibcite{grachten}{26}
\bibcite{gwee}{27}
\bibcite{harris}{28}
\bibcite{hild}{29}
\bibcite{illiac}{30}
\bibcite{hopcroft}{31}
\bibcite{hornel}{32}
\bibcite{horner}{33}
\bibcite{horner2}{34}
\bibcite{horowitz}{35}
\bibcite{jacob}{36}
\bibcite{johnson}{37}
\bibcite{k99}{38}
\bibcite{kippenbell}{39}
\bibcite{kitani}{40}
\bibcite{laurson}{41}
\bibcite{leach}{42}
\bibcite{lerdahl}{43}
\bibcite{lewis}{44}
\bibcite{lidov}{45}
\bibcite{lolucas}{46}
\bibcite{lozano}{47}
\bibcite{lyon}{48}
\bibcite{maddox}{49}
\bibcite{manaris}{50}
\bibcite{marques}{51}
\bibcite{masonsaffle}{52}
\bibcite{mcguire}{53}
\bibcite{mcintyre}{54}
\bibcite{melo}{55}
\bibcite{morales}{56}
\bibcite{morgan}{57}
\bibcite{morris}{58}
\bibcite{nelson}{59}
\bibcite{ovans}{60}
\bibcite{papadop}{61}
\bibcite{papadopsurvey}{62}
\bibcite{phon}{63}
\bibcite{polito}{64}
\bibcite{prusinkiewicz}{65}
\bibcite{rader}{66}
\bibcite{ramirez}{67}
\bibcite{rothgeb}{68}
\bibcite{schmidl}{69}
\bibcite{schwanauer}{70}
\bibcite{solan}{71}
\bibcite{spangler}{72}
\bibcite{steedman}{73}
\bibcite{thomas}{74}
\bibcite{todd}{75}
\bibcite{toiviainen}{76}
\bibcite{bcl}{77}
\bibcite{ulrich}{78}
\bibcite{verbeurgt}{79}
\bibcite{voss}{80}
\bibcite{widmer}{81}
\bibcite{zaanen}{82}
\@setckpt{literatura}{
\setcounter{page}{53}
\setcounter{equation}{0}
\setcounter{enumi}{5}
\setcounter{enumii}{2}
\setcounter{enumiii}{0}
\setcounter{enumiv}{82}
\setcounter{footnote}{4}
\setcounter{mpfootnote}{0}
\setcounter{part}{0}
\setcounter{chapter}{8}
\setcounter{section}{9}
\setcounter{subsection}{0}
\setcounter{subsubsection}{0}
\setcounter{paragraph}{0}
\setcounter{subparagraph}{0}
\setcounter{figure}{2}
\setcounter{table}{0}
\setcounter{parentequation}{0}
\setcounter{ContinuedFloat}{0}
\setcounter{float@type}{4}
\setcounter{@pps}{0}
\setcounter{@ppsavesec}{0}
\setcounter{@ppsaveapp}{0}
\setcounter{Item}{27}
\setcounter{Hfootnote}{25}
\setcounter{bookmark@seq@number}{66}
\setcounter{section@level}{1}
}
