\relax 
\providecommand\hyper@newdestlabel[2]{}
\catcode`"\active
\catcode`-\active
\providecommand\HyperFirstAtBeginDocument{\AtBeginDocument}
\HyperFirstAtBeginDocument{\ifx\hyper@anchor\@undefined
\global\let\oldcontentsline\contentsline
\gdef\contentsline#1#2#3#4{\oldcontentsline{#1}{#2}{#3}}
\global\let\oldnewlabel\newlabel
\gdef\newlabel#1#2{\newlabelxx{#1}#2}
\gdef\newlabelxx#1#2#3#4#5#6{\oldnewlabel{#1}{{#2}{#3}}}
\AtEndDocument{\ifx\hyper@anchor\@undefined
\let\contentsline\oldcontentsline
\let\newlabel\oldnewlabel
\fi}
\fi}
\global\let\hyper@last\relax 
\gdef\HyperFirstAtBeginDocument#1{#1}
\providecommand\HyField@AuxAddToFields[1]{}
\providecommand\HyField@AuxAddToCoFields[2]{}
\select@language{czech}
\@writefile{toc}{\select@language{czech}}
\@writefile{lof}{\select@language{czech}}
\@writefile{lot}{\select@language{czech}}
\@writefile{toc}{\contentsline {chapter}{\IeC {\'U}vod}{3}{chapter*.2}}
\@writefile{toc}{\contentsline {section}{C\IeC {\'\i }le pr\IeC {\'a}ce}{3}{section*.3}}
\@writefile{toc}{\contentsline {section}{Motivace}{3}{section*.4}}
\@writefile{toc}{\contentsline {section}{Struktura pr\IeC {\'a}ce}{3}{section*.5}}
\@writefile{toc}{\contentsline {chapter}{\numberline {1}Existuj\IeC {\'\i }c\IeC {\'\i } \IeC {\v r}e\IeC {\v s}en\IeC {\'\i }}{5}{chapter.1}}
\@writefile{lof}{\addvspace {10\p@ }}
\@writefile{lot}{\addvspace {10\p@ }}
\@writefile{toc}{\contentsline {section}{\numberline {1.1}Backing-tracky nahran\IeC {\'e} ve studiu re\IeC {\'a}ln\IeC {\'y}mi muzikanty}{5}{section.1.1}}
\@writefile{toc}{\contentsline {section}{\numberline {1.2}Backing-tracky vygenerovan\IeC {\'e} po\IeC {\v c}\IeC {\'\i }ta\IeC {\v c}em}{5}{section.1.2}}
\@writefile{toc}{\contentsline {subsection}{\numberline {1.2.1}Band-in-a-Box}{6}{subsection.1.2.1}}
\@writefile{toc}{\contentsline {subsection}{\numberline {1.2.2}Impro-visor}{6}{subsection.1.2.2}}
\newlabel{ssec:improvisor}{{1.2.2}{6}{Impro-visor}{subsection.1.2.2}{}}
\@writefile{toc}{\contentsline {subsection}{\numberline {1.2.3}iReal Pro}{7}{subsection.1.2.3}}
\newlabel{ssec:irealpro}{{1.2.3}{7}{iReal Pro}{subsection.1.2.3}{}}
\@writefile{toc}{\contentsline {subsection}{\numberline {1.2.4}ChordPulse}{7}{subsection.1.2.4}}
\@writefile{toc}{\contentsline {subsection}{\numberline {1.2.5}ChordPad}{8}{subsection.1.2.5}}
\citation{colton}
\citation{papadopsurvey}
\citation{fernandez}
\@writefile{toc}{\contentsline {chapter}{\numberline {2}Metody algoritmick\IeC {\'e} hudebn\IeC {\'\i } kompozice}{9}{chapter.2}}
\@writefile{lof}{\addvspace {10\p@ }}
\@writefile{lot}{\addvspace {10\p@ }}
\@writefile{toc}{\contentsline {section}{\numberline {2.1}Gramatiky}{9}{section.2.1}}
\citation{lidov}
\citation{rader}
\citation{ulrich}
\citation{lerdahl}
\citation{steedman}
\citation{kippenbell}
\citation{alcazar}
\citation{gillick}
\citation{kitani}
\citation{prusinkiewicz}
\citation{nelson}
\citation{masonsaffle}
\citation{morgan}
\citation{mcguire}
\@writefile{toc}{\contentsline {subsection}{\numberline {2.1.1}L-syst\IeC {\'e}my}{10}{subsection.2.1.1}}
\citation{illiac}
\citation{rothgeb}
\citation{thomas}
\citation{horowitz}
\citation{schwanauer}
\citation{widmer}
\citation{spangler}
\citation{morales}
\citation{mcintyre}
\citation{horner}
\citation{maddox}
\citation{polito}
\citation{gwee}
\citation{ebcioglu1}
\citation{ebcioglu2}
\citation{ovans}
\citation{ramirez}
\citation{phon}
\citation{laurson}
\@writefile{toc}{\contentsline {section}{\numberline {2.2}Znalostn\IeC {\'\i } syst\IeC {\'e}my}{11}{section.2.2}}
\@writefile{toc}{\contentsline {subsection}{\numberline {2.2.1}Znalostn\IeC {\'\i } syst\IeC {\'e}my a~evolu\IeC {\v c}n\IeC {\'\i } algoritmy}{11}{subsection.2.2.1}}
\@writefile{toc}{\contentsline {subsection}{\numberline {2.2.2}Spl\IeC {\v n}ov\IeC {\'a}n\IeC {\'\i } podm\IeC {\'\i }nek}{11}{subsection.2.2.2}}
\citation{grachten}
\citation{manaris}
\citation{lyon}
\citation{verbeurgt}
\citation{lolucas}
\citation{farbood}
\citation{allan}
\citation{morris}
\@writefile{toc}{\contentsline {section}{\numberline {2.3}Markovovy \IeC {\v r}et\IeC {\v e}zce}{12}{section.2.3}}
\@writefile{lof}{\contentsline {figure}{\numberline {2.1}{\ignorespaces \relax \fontsize  {10.95}{13.6}\selectfont  \abovedisplayskip 11\p@ plus3\p@ minus6\p@ \abovedisplayshortskip \z@ plus3\p@ \belowdisplayshortskip 6.5\p@ plus3.5\p@ minus3\p@ \def \leftmargin \leftmargini \parsep 5\p@ plus2.5\p@ minus\p@ \topsep 10\p@ plus4\p@ minus6\p@ \itemsep 5\p@ plus2.5\p@ minus\p@ {\leftmargin \leftmargini \topsep 9\p@ plus3\p@ minus5\p@ \parsep 4.5\p@ plus2\p@ minus\p@ \itemsep \parsep }\belowdisplayskip \abovedisplayskip P\IeC {\v r}\IeC {\'\i }klad jednoduch\IeC {\'e}ho Markovova \IeC {\v r}et\IeC {\v e}zce s~dv\IeC {\v e}ma stavy (zdroj: Wikipedia \footnotemark ) \relax }}{12}{figure.caption.7}}
\providecommand*\caption@xref[2]{\@setref\relax\@undefined{#1}}
\newlabel{fig:markov}{{2.1}{12}{\small Příklad jednoduchého Markovova řetězce s~dvěma stavy (zdroj: Wikipedia \protect \footnotemark ) \relax }{figure.caption.7}{}}
\citation{todd}
\citation{duff}
\citation{lewis}
\@writefile{toc}{\contentsline {subsection}{\numberline {2.3.1}Skryt\IeC {\'e} Markovovy modely}{13}{subsection.2.3.1}}
\@writefile{toc}{\contentsline {section}{\numberline {2.4}Neuronov\IeC {\'e} s\IeC {\'\i }t\IeC {\v e}}{13}{section.2.4}}
\@writefile{lof}{\contentsline {figure}{\numberline {2.2}{\ignorespaces \relax \fontsize  {10.95}{13.6}\selectfont  \abovedisplayskip 11\p@ plus3\p@ minus6\p@ \abovedisplayshortskip \z@ plus3\p@ \belowdisplayshortskip 6.5\p@ plus3.5\p@ minus3\p@ \def \leftmargin \leftmargini \parsep 5\p@ plus2.5\p@ minus\p@ \topsep 10\p@ plus4\p@ minus6\p@ \itemsep 5\p@ plus2.5\p@ minus\p@ {\leftmargin \leftmargini \topsep 9\p@ plus3\p@ minus5\p@ \parsep 4.5\p@ plus2\p@ minus\p@ \itemsep \parsep }\belowdisplayskip \abovedisplayskip Jednoduch\IeC {\'a} neuronov\IeC {\'a} s\IeC {\'\i }\IeC {\v t} (zdroj: autor)\relax }}{13}{figure.caption.8}}
\newlabel{fig:neural}{{2.2}{13}{\small Jednoduchá neuronová síť (zdroj: autor)\relax }{figure.caption.8}{}}
\citation{bellgard}
\citation{melo}
\citation{toiviainen}
\citation{franklin}
\citation{hild}
\citation{goldman}
\citation{gibson}
\citation{hornel}
\citation{burton}
\citation{horner2}
\@writefile{toc}{\contentsline {section}{\numberline {2.5}Evolu\IeC {\v c}n\IeC {\'\i } algoritmy}{14}{section.2.5}}
\citation{marques}
\citation{johnson}
\citation{papadop}
\citation{birchfield}
\citation{lozano}
\citation{deprisco}
\citation{freitas}
\citation{gartland}
\citation{alfon}
\citation{iamus}
\citation{biles}
\citation{jacob}
\citation{schmidl}
\@writefile{toc}{\contentsline {subsection}{\numberline {2.5.1}Algoritmy s~automatickou hodnot\IeC {\'\i }c\IeC {\'\i } funkc\IeC {\'\i }}{15}{subsection.2.5.1}}
\@writefile{toc}{\contentsline {subsection}{\numberline {2.5.2}Algoritmy s~interaktivn\IeC {\'\i } hodnot\IeC {\'\i }c\IeC {\'\i } funkc\IeC {\'\i }}{15}{subsection.2.5.2}}
\citation{voss}
\citation{diaz}
\citation{bidlack}
\citation{leach}
\@writefile{toc}{\contentsline {section}{\numberline {2.6}Sob\IeC {\v e}podobnost a~frakt\IeC {\'a}ly}{16}{section.2.6}}
\@writefile{lof}{\contentsline {figure}{\numberline {2.3}{\ignorespaces \relax \fontsize  {10.95}{13.6}\selectfont  \abovedisplayskip 11\p@ plus3\p@ minus6\p@ \abovedisplayshortskip \z@ plus3\p@ \belowdisplayshortskip 6.5\p@ plus3.5\p@ minus3\p@ \def \leftmargin \leftmargini \parsep 5\p@ plus2.5\p@ minus\p@ \topsep 10\p@ plus4\p@ minus6\p@ \itemsep 5\p@ plus2.5\p@ minus\p@ {\leftmargin \leftmargini \topsep 9\p@ plus3\p@ minus5\p@ \parsep 4.5\p@ plus2\p@ minus\p@ \itemsep \parsep }\belowdisplayskip \abovedisplayskip P\IeC {\v r}\IeC {\'\i }klad jednoduch\IeC {\'e}ho frakt\IeC {\'a}lu -- Sierpi\IeC {\'n}sk\IeC {\'e}ho troj\IeC {\'u}heln\IeC {\'\i }k (zdroj: \url  {www.oftenpaper.net}) \relax }}{16}{figure.caption.9}}
\newlabel{fig:markov}{{2.3}{16}{\small Příklad jednoduchého fraktálu -- Sierpińského trojúhelník (zdroj: \url {www.oftenpaper.net}) \relax }{figure.caption.9}{}}
\@writefile{toc}{\contentsline {chapter}{\numberline {3}Volba metodologie}{17}{chapter.3}}
\@writefile{lof}{\addvspace {10\p@ }}
\@writefile{lot}{\addvspace {10\p@ }}
\@writefile{toc}{\contentsline {section}{Shrnut\IeC {\'\i }}{18}{section*.10}}
\citation{k99}
\citation{harris}
\citation{zaanen}
\@writefile{toc}{\contentsline {chapter}{\numberline {4}Algoritmy inference bezkontextov\IeC {\'y}ch gramatik bez u\IeC {\v c}itele}{19}{chapter.4}}
\@writefile{lof}{\addvspace {10\p@ }}
\@writefile{lot}{\addvspace {10\p@ }}
\@writefile{toc}{\contentsline {section}{\numberline {4.1}ABL (Alignment-Based Learning)}{19}{section.4.1}}
\citation{solan}
\citation{adriaans}
\@writefile{toc}{\contentsline {section}{\numberline {4.2}ADIOS (Automatic DIstillation of Structure)}{20}{section.4.2}}
\@writefile{toc}{\contentsline {section}{\numberline {4.3}EMILE (Entity Modelling Intelligent Learning Engine)}{20}{section.4.3}}
\citation{bcl}
\citation{hopcroft}
\citation{bcl}
\@writefile{toc}{\contentsline {section}{\numberline {4.4}PCFG-BCL}{21}{section.4.4}}
\@writefile{toc}{\contentsline {section}{\numberline {4.5}Diskuze v\IeC {\'y}b\IeC {\v e}ru algoritmu}{21}{section.4.5}}
\citation{bcl}
\citation{hopcroft}
\citation{bcl}
\citation{bcl}
\@writefile{toc}{\contentsline {chapter}{\numberline {5}Algoritmus PCFG-BCL}{22}{chapter.5}}
\@writefile{lof}{\addvspace {10\p@ }}
\@writefile{lot}{\addvspace {10\p@ }}
\newlabel{ch:pcfgbcl}{{5}{22}{Algoritmus PCFG-BCL}{chapter.5}{}}
\@writefile{toc}{\contentsline {section}{\numberline {5.1}Reprezentace gramatiky}{22}{section.5.1}}
\newlabel{sec:andorgrammar}{{5.1}{22}{Reprezentace gramatiky}{section.5.1}{}}
\@writefile{lot}{\contentsline {table}{\numberline {5.1}{\ignorespaces P\IeC {\v r}\IeC {\'\i }klad p\IeC {\v r}evodu bezkontextov\IeC {\'e} gramatiky v~CNF do AND-OR formy (p\IeC {\v r}evzato z~\cite  [s. 3]{bcl})\relax }}{22}{table.caption.11}}
\@writefile{toc}{\contentsline {section}{\numberline {5.2}Hlavn\IeC {\'\i } f\IeC {\'a}ze algoritmu}{22}{section.5.2}}
\citation{bcl}
\citation{bcl}
\citation{bcl}
\citation{bcl}
\@writefile{toc}{\contentsline {subsection}{\numberline {5.2.1}Nalezen\IeC {\'\i } nov\IeC {\'e} AND-OR skupiny technikou biclusteringu}{23}{subsection.5.2.1}}
\@writefile{lof}{\contentsline {figure}{\numberline {5.1}{\ignorespaces P\IeC {\v r}\IeC {\'\i }klad AND-OR skupiny v\IeC {\v c}etn\IeC {\v e} pravd\IeC {\v e}podobnost\IeC {\'\i } (p\IeC {\v r}evzato z~\cite  [s.~5]{bcl}).\relax }}{23}{figure.caption.12}}
\newlabel{andor1}{{5.1}{23}{Příklad AND-OR skupiny včetně pravděpodobností (převzato z~\cite [s.~5]{bcl}).\relax }{figure.caption.12}{}}
\@writefile{lof}{\contentsline {figure}{\numberline {5.2}{\ignorespaces Bicluster v~tabulce v\IeC {\'y}skyt\IeC {\r u} $T$ odpov\IeC {\'\i }daj\IeC {\'\i }c\IeC {\'\i } AND-OR skupin\IeC {\v e} z~\ref  {andor1}. Nulov\IeC {\'e} hodnoty jsou ponech\IeC {\'a}ny pr\IeC {\'a}zdn\IeC {\'e}. (P\IeC {\v r}evzato z~\cite  [s.~5]{bcl}.)\relax }}{23}{figure.caption.13}}
\citation{bcl}
\@writefile{lof}{\contentsline {figure}{\numberline {5.3}{\ignorespaces \IeC {\v C}\IeC {\'a}st kontextov\IeC {\'e} tabulky p\IeC {\v r}\IeC {\'\i }slu\IeC {\v s}\IeC {\'\i }c\IeC {\'\i } p\IeC {\v r}edchoz\IeC {\'\i }mu biclusteru\relax }}{24}{figure.caption.14}}
\newlabel{lg}{{5.1}{25}{Nalezení nové AND-OR skupiny technikou biclusteringu}{equation.5.2.1}{}}
\@writefile{toc}{\contentsline {subsection}{\numberline {5.2.2}P\IeC {\v r}ipojen\IeC {\'\i } nov\IeC {\v e} nalezen\IeC {\'y}ch AND netermin\IeC {\'a}l\IeC {\r u} pod ji\IeC {\v z} existuj\IeC {\'\i }c\IeC {\'\i } OR symboly}{25}{subsection.5.2.2}}
\citation{bcl}
\newlabel{lg2}{{5.4}{27}{Připojení nově nalezených AND neterminálů pod již existující OR symboly}{equation.5.2.4}{}}
\@writefile{toc}{\contentsline {subsection}{\numberline {5.2.3}Postprocessing}{27}{subsection.5.2.3}}
\@writefile{toc}{\contentsline {chapter}{\numberline {6}Pou\IeC {\v z}it\IeC {\'e} korpusy}{29}{chapter.6}}
\@writefile{lof}{\addvspace {10\p@ }}
\@writefile{lot}{\addvspace {10\p@ }}
\@writefile{toc}{\contentsline {section}{\numberline {6.1}Korpusy zachycuj\IeC {\'\i }c\IeC {\'\i } strukturu skladby}{29}{section.6.1}}
\@writefile{toc}{\contentsline {subsection}{\numberline {6.1.1}Reference Segmentations Corpus}{29}{subsection.6.1.1}}
\newlabel{corpus:refseg}{{6.1.1}{29}{Reference Segmentations Corpus}{subsection.6.1.1}{}}
\@writefile{lof}{\contentsline {figure}{\numberline {6.1}{\ignorespaces Uk\IeC {\'a}zka z~korpusu \emph  {Reference segmentations}\relax }}{29}{figure.6.1}}
\@writefile{toc}{\contentsline {subsection}{\numberline {6.1.2}Rock Study Corpus}{29}{subsection.6.1.2}}
\newlabel{corpus:rs}{{6.1.2}{29}{Rock Study Corpus}{subsection.6.1.2}{}}
\@writefile{lof}{\contentsline {figure}{\numberline {6.2}{\ignorespaces Uk\IeC {\'a}zka z~korpusu \emph  {Rock Study}\relax }}{30}{figure.6.2}}
\@writefile{toc}{\contentsline {section}{\numberline {6.2}Korpusy akordov\IeC {\'y}ch posloupnost\IeC {\'\i }}{30}{section.6.2}}
\@writefile{toc}{\contentsline {subsection}{\numberline {6.2.1}Imaginary Book}{30}{subsection.6.2.1}}
\newlabel{corpus:imag}{{6.2.1}{30}{Imaginary Book}{subsection.6.2.1}{}}
\@writefile{lof}{\contentsline {figure}{\numberline {6.3}{\ignorespaces Uk\IeC {\'a}zka \IeC {\v c}\IeC {\'a}sti souboru z~korpusu \emph  {Imaginary Book}\relax }}{30}{figure.6.3}}
\@writefile{toc}{\contentsline {subsection}{\numberline {6.2.2}iRb Corpus}{31}{subsection.6.2.2}}
\newlabel{corpus:irb}{{6.2.2}{31}{iRb Corpus}{subsection.6.2.2}{}}
\@writefile{lof}{\contentsline {figure}{\numberline {6.4}{\ignorespaces Uk\IeC {\'a}zka \IeC {\v c}\IeC {\'a}sti souboru z~korpusu \emph  {iRb Corpus}\relax }}{31}{figure.6.4}}
\@writefile{toc}{\contentsline {chapter}{\numberline {7}Generov\IeC {\'a}n\IeC {\'\i } rytmick\IeC {\'e}ho doprovodu}{32}{chapter.7}}
\@writefile{lof}{\addvspace {10\p@ }}
\@writefile{lot}{\addvspace {10\p@ }}
\@writefile{toc}{\contentsline {section}{\numberline {7.1}Generov\IeC {\'a}n\IeC {\'\i } bic\IeC {\'\i }ch}{32}{section.7.1}}
\@writefile{lot}{\contentsline {table}{\numberline {7.1}{\ignorespaces MIDI k\IeC {\'o}dy nejpou\IeC {\v z}\IeC {\'\i }van\IeC {\v e}j\IeC {\v s}\IeC {\'\i }ch bic\IeC {\'\i }ch n\IeC {\'a}stroj\IeC {\r u} \footnotemark \relax }}{33}{table.caption.15}}
\newlabel{fig:drummidi}{{7.1}{33}{MIDI kódy nejpoužívanějších bicích nástrojů \protect \footnotemark \relax }{table.caption.15}{}}
\@writefile{toc}{\contentsline {section}{\numberline {7.2}Generov\IeC {\'a}n\IeC {\'\i } klav\IeC {\'\i }rn\IeC {\'\i }ho doprovodu}{33}{section.7.2}}
\@writefile{toc}{\contentsline {section}{\numberline {7.3}Generov\IeC {\'a}n\IeC {\'\i } basov\IeC {\'e} linky}{33}{section.7.3}}
\newlabel{sec:bass}{{7.3}{33}{Generování basové linky}{section.7.3}{}}
\@writefile{lof}{\contentsline {figure}{\numberline {7.1}{\ignorespaces P\IeC {\v r}\IeC {\'\i }klad sestrojen\IeC {\'\i } basov\IeC {\'e} sekvence pro jeden takt. \IeC {\v C}\IeC {\'\i }sla v~krou\IeC {\v z}c\IeC {\'\i }ch nazna\IeC {\v c}uj\IeC {\'\i }, kter\IeC {\'y} p\IeC {\v r}\IeC {\'\i }stup sm\IeC {\v e}\IeC {\v r}ov\IeC {\'a}n\IeC {\'\i } byl pou\IeC {\v z}it.\relax }}{35}{figure.7.1}}
\newlabel{bass}{{7.1}{35}{Příklad sestrojení basové sekvence pro jeden takt. Čísla v~kroužcích naznačují, který přístup směřování byl použit.\relax }{figure.7.1}{}}
\@writefile{lof}{\contentsline {figure}{\numberline {7.2}{\ignorespaces Notov\IeC {\'y} z\IeC {\'a}pis basov\IeC {\'e} linky vygenerovan\IeC {\'e} v~p\IeC {\v r}\IeC {\'\i }kladu \ref  {bass}\relax }}{35}{figure.7.2}}
\newlabel{bassline}{{7.2}{35}{Notový zápis basové linky vygenerované v~příkladu \ref {bass}\relax }{figure.7.2}{}}
\@writefile{toc}{\contentsline {chapter}{\numberline {8}Program\IeC {\'a}torsk\IeC {\'a} dokumentace}{36}{chapter.8}}
\@writefile{lof}{\addvspace {10\p@ }}
\@writefile{lot}{\addvspace {10\p@ }}
\@writefile{toc}{\contentsline {section}{\numberline {8.1}Prost\IeC {\v r}ed\IeC {\'\i }}{36}{section.8.1}}
\@writefile{toc}{\contentsline {section}{\numberline {8.2}Obecn\IeC {\'a} struktura}{36}{section.8.2}}
\@writefile{toc}{\contentsline {section}{\numberline {8.3}Reprezentace skladby}{36}{section.8.3}}
\@writefile{toc}{\contentsline {section}{\numberline {8.4}Reprezentace gramatiky}{38}{section.8.4}}
\@writefile{lof}{\contentsline {figure}{\numberline {8.1}{\ignorespaces T\IeC {\v r}\IeC {\'\i }dy reprezentuj\IeC {\'\i }c\IeC {\'\i } symboly v~gramatice.\relax }}{38}{figure.8.1}}
\@writefile{toc}{\contentsline {section}{\numberline {8.5}Reprezentace korpusu a~souvisej\IeC {\'\i }c\IeC {\'\i } t\IeC {\v r}\IeC {\'\i }dy}{39}{section.8.5}}
\@writefile{toc}{\contentsline {section}{\numberline {8.6}Implementace algoritmu PCFG-BCL}{40}{section.8.6}}
\@writefile{lof}{\contentsline {figure}{\numberline {8.2}{\ignorespaces Objektov\IeC {\'y} n\IeC {\'a}vrh j\IeC {\'a}dra programu\relax }}{40}{figure.8.2}}
\@writefile{toc}{\contentsline {subsection}{\numberline {8.6.1}Proces inference gramatik}{41}{subsection.8.6.1}}
\@writefile{toc}{\contentsline {section}{\numberline {8.7}Generov\IeC {\'a}n\IeC {\'\i } rytmick\IeC {\'e}ho aran\IeC {\v z}m\IeC {\'a}}{42}{section.8.7}}
\@writefile{toc}{\contentsline {subsection}{\numberline {8.7.1}Generov\IeC {\'a}n\IeC {\'\i } bic\IeC {\'\i }ch a klav\IeC {\'\i }rn\IeC {\'\i }ho doprovodu}{43}{subsection.8.7.1}}
\@writefile{toc}{\contentsline {subsection}{\numberline {8.7.2}Generov\IeC {\'a}n\IeC {\'\i } basov\IeC {\'e} linky}{43}{subsection.8.7.2}}
\newlabel{prog:bass}{{8.7.2}{43}{Generování basové linky}{subsection.8.7.2}{}}
\@writefile{toc}{\contentsline {section}{\numberline {8.8}P\IeC {\v r}ehr\IeC {\'a}v\IeC {\'a}n\IeC {\'\i } MIDI}{45}{section.8.8}}
\@writefile{toc}{\contentsline {section}{\numberline {8.9}GUI}{45}{section.8.9}}
\citation{gillet}
\@writefile{toc}{\contentsline {chapter}{Z\IeC {\'a}v\IeC {\v e}r}{46}{chapter*.16}}
\@writefile{toc}{\contentsline {section}{Mo\IeC {\v z}nosti dal\IeC {\v s}\IeC {\'\i }ho v\IeC {\'y}voje}{46}{section*.17}}
\@input{literatura.aux}
\@writefile{toc}{\contentsline {chapter}{P\IeC {\v r}\IeC {\'\i }loha \numberline {A}Obsah CD}{53}{Appendix.a.A}}
\@writefile{lof}{\addvspace {10\p@ }}
\@writefile{lot}{\addvspace {10\p@ }}
\@writefile{toc}{\contentsline {chapter}{P\IeC {\v r}\IeC {\'\i }loha \numberline {B}U\IeC {\v z}ivatelsk\IeC {\'a} dokumentace}{54}{Appendix.a.B}}
\@writefile{lof}{\addvspace {10\p@ }}
\@writefile{lot}{\addvspace {10\p@ }}
\@writefile{toc}{\contentsline {section}{\numberline {B.1}Instalace}{54}{section.a.B.1}}
\@writefile{toc}{\contentsline {section}{\numberline {B.2}Hlavn\IeC {\'\i } okno}{54}{section.a.B.2}}
\@writefile{toc}{\contentsline {section}{\numberline {B.3}Dialog nastaven\IeC {\'\i } programu}{54}{section.a.B.3}}
\@writefile{toc}{\contentsline {section}{\numberline {B.4}Pr\IeC {\'a}ce s~programem}{55}{section.a.B.4}}
\@writefile{lof}{\contentsline {figure}{\numberline {B.1}{\ignorespaces \relax \fontsize  {10.95}{13.6}\selectfont  \abovedisplayskip 11\p@ plus3\p@ minus6\p@ \abovedisplayshortskip \z@ plus3\p@ \belowdisplayshortskip 6.5\p@ plus3.5\p@ minus3\p@ \def \leftmargin \leftmargini \parsep 5\p@ plus2.5\p@ minus\p@ \topsep 10\p@ plus4\p@ minus6\p@ \itemsep 5\p@ plus2.5\p@ minus\p@ {\leftmargin \leftmargini \topsep 9\p@ plus3\p@ minus5\p@ \parsep 4.5\p@ plus2\p@ minus\p@ \itemsep \parsep }\belowdisplayskip \abovedisplayskip Hlavn\IeC {\'\i } okno programu\relax }}{56}{figure.a.B.1}}
\newlabel{fig:mainwindow}{{B.1}{56}{\small Hlavní okno programu\relax }{figure.a.B.1}{}}
\@writefile{lof}{\contentsline {figure}{\numberline {B.2}{\ignorespaces \relax \fontsize  {10.95}{13.6}\selectfont  \abovedisplayskip 11\p@ plus3\p@ minus6\p@ \abovedisplayshortskip \z@ plus3\p@ \belowdisplayshortskip 6.5\p@ plus3.5\p@ minus3\p@ \def \leftmargin \leftmargini \parsep 5\p@ plus2.5\p@ minus\p@ \topsep 10\p@ plus4\p@ minus6\p@ \itemsep 5\p@ plus2.5\p@ minus\p@ {\leftmargin \leftmargini \topsep 9\p@ plus3\p@ minus5\p@ \parsep 4.5\p@ plus2\p@ minus\p@ \itemsep \parsep }\belowdisplayskip \abovedisplayskip Dialogov\IeC {\'e} okno nastaven\IeC {\'\i } programu\relax }}{56}{figure.a.B.2}}
\newlabel{fig:settings}{{B.2}{56}{\small Dialogové okno nastavení programu\relax }{figure.a.B.2}{}}
